30;1
30;2
30;12
30;26
30;41
30;44
30;45
30;49
30;64
30;132
30;133
30;157
20;158
30;160
30;161
30;170
20;175
20;176
30;183
20;187
30;206
30;209
30;219
20;222
20;223
30;224
30;242
30;250
30;256
30;263
30;269
30;270
30;280
30;285
30;299
30;362
30;372
30;374
30;378
30;379
30;384
20;395
30;428
30;429
30;431
30;468
30;506
30;507
20;538
20;539
30;632
20;644
20;646
30;660
30;661
30;730
30;850
30;851
30;853
30;854
30;855
30;860
30;866
30;867
30;868
30;870
30;873
30;874
30;875
30;876
20;929
30;947
30;969
30;970
20;979
20;980
30;989
30;990
30;994
20;PARLANTES. ALPINE-ESTADO ELECTRICO DESCONOCIDO
20;1006
30;1010
30;1021
20;1024
30;1027
30;1028
30;1066
20;1068
20;1069
20;1072
30;1077
30;1078
30;1079
20;1093
20;1098
20;1102
20;1108
30;1118
30;1162
30;1164
30;1171
30;1176
20;1225
30;1228
20;1270
20;1274
20;1275
20;1278
20;1279
20;1284
30;1285
30;1286
30;1297
30;1299
30;1303
30;1317
30;1318
20;1321
20;1324
30;1341
20;1390
20;1404
20;1405
20;1515
20;1516
30;1613
30;1617
30;1639
30;1640
30;1682
30;1705
20;1712
20;1764
20;1790
30;1802
20;1808
30;1959
30;1960
20;1992
20;1993
20;2037
30;2062
30;2133
30;2159
20;2203
20;2205
20;2206
20;2213
30;2318
30;2319
20;2330
20;2350
30;2412
30;2431
30;2432
30;2433
20;2562
20;2563
20;2564
20;2565
30;2630
30;2631
20;2801
20;2802
30;2842
30;2874
30;3136
20;3145
30;3290
20;3291
30;3300
20;3342
30;3747
30;3770
30;3781
20;3839
30;3885
30;3904
30;3914
30;3930
30;3973
30;3974
30;3975
30;3976
30;4016
30;4020
30;4055
20;4131
20;4132
30;4147
30;4149
20;4246
30;4314
30;4372
30;4408
20;4413
30;4431
30;4452
30;4526
30;4535
30;4540
30;4541
20;4543
20;4544
20;4566
20;4580
20;4581
30;4648
30;4677
30;4683
20;4741
20;4845
20;4878
30;4915
30;4971
20;4972
30;4976
20;4977
20;4978
20;4979
20;4985
20;4986
20;4987
20;4988
20;4989
20;4991
20;4992
20;4993
20;4994
20;4995
20;4996
20;4997
20;4998
20;4999
30;5000
30;5001
30;5007
20;5008
30;5009
30;5010
30;5011
30;5013
30;5014
20;5015
20;5016
20;5017
20;5018
20;5019
30;5073
30;5076
30;5110
30;5111
30;5133
20;5145
20;5149
20;5150
20;5161
20;5163
20;5166
20;5170
20;5172
20;5175
20;5176
20;5180
20;5181
20;5182
20;5186
30;5188
30;5190
20;5196
20;5204
20;5214
30;5219
20;5222
20;5223
20;5227
30;5237
20;5249
30;5258
20;5260
20;5269
20;5270
20;5271
20;5272
20;5273
20;5275
20;5279
20;5280
20;5281
20;5284
20;5289
20;5290
30;5295
20;5298
20;5301
20;5302
20;5306
30;5309
30;5310
20;5319
30;5457
20;5469
20;5470
20;5474
20;5505
30;5621
30;5622
20;5654
20;5655
30;077B5
30;10006
20;204B5
30;341B5
20;405B5
20;992B5
